File I/O and basic data wrangling
…
---

# Filter

* Choose only the penguins from the island Torgersen  

--

```r
penguins %>%
  filter(island == "Torgersen")
```

```
## # A tibble: 52 x 8
##    species island    bill_length_mm bill_depth_mm flipper_length_mm body_mass_g sex     year
##    <fct>   <fct>              <dbl>         <dbl>             <int>       <int> <fct>  <int>
##  1 Adelie  Torgersen           39.1          18.7               181        3750 male    2007
##  2 Adelie  Torgersen           39.5          17.4               186        3800 female  2007
##  3 Adelie  Torgersen           40.3          18                 195        3250 female  2007
##  4 Adelie  Torgersen           NA            NA                  NA          NA <NA>    2007
##  5 Adelie  Torgersen           36.7          19.3               193        3450 female  2007
##  6 Adelie  Torgersen           39.3          20.6               190        3650 male    2007
##  7 Adelie  Torgersen           38.9          17.8               181        3625 female  2007
##  8 Adelie  Torgersen           39.2          19.6               195        4675 male    2007
##  9 Adelie  Torgersen           34.1          18.1               193        3475 <NA>    2007
## 10 Adelie  Torgersen           42            20.2               190        4250 <NA>    2007
## #  with 42 more rows
```
---

# Filter

* Choose only the penguins that are species `Gentoo`

--

```r
penguins %>%
  filter(species == "Gentoo")
```

```
## # A tibble: 124 x 8
##    species island bill_length_mm bill_depth_mm flipper_length_mm body_mass_g sex     year
##    <fct>   <fct>           <dbl>         <dbl>             <int>       <int> <fct>  <int>
##  1 Gentoo  Biscoe           46.1          13.2               211        4500 female  2007
##  2 Gentoo  Biscoe           50            16.3               230        5700 male    2007
##  3 Gentoo  Biscoe           48.7          14.1               210        4450 female  2007
##  4 Gentoo  Biscoe           50            15.2               218        5700 male    2007
##  5 Gentoo  Biscoe           47.6          14.5               215        5400 male    2007
##  6 Gentoo  Biscoe           46.5          13.5               210        4550 female  2007
##  7 Gentoo  Biscoe           45.4          14.6               211        4800 female  2007
##  8 Gentoo  Biscoe           46.7          15.3               219        5200 male    2007
##  9 Gentoo  Biscoe           43.3          13.4               209        4400 female  2007
## 10 Gentoo  Biscoe           46.8          15.4               215        5150 male    2007
## #  with 114 more rows
```
…
---

# Filter

* Choose only the penguins that are species `Chinstrap` or from the island `Biscoe`

--

```r
penguins %>%
  filter(species == "Chinstrap" | island == "Biscoe")
```

```
## # A tibble: 236 x 8
##    species island bill_length_mm bill_depth_mm flipper_length_mm body_mass_g sex     year
##    <fct>   <fct>           <dbl>         <dbl>             <int>       <int> <fct>  <int>
##  1 Adelie  Biscoe           37.8          18.3               174        3400 female  2007
##  2 Adelie  Biscoe           37.7          18.7               180        3600 male    2007
##  3 Adelie  Biscoe           35.9          19.2               189        3800 female  2007
##  4 Adelie  Biscoe           38.2          18.1               185        3950 male    2007
##  5 Adelie  Biscoe           38.8          17.2               180        3800 male    2007
##  6 Adelie  Biscoe           35.3          18.9               187        3800 female  2007
##  7 Adelie  Biscoe           40.6          18.6               183        3550 male    2007
##  8 Adelie  Biscoe           40.5          17.9               187        3200 female  2007
##  9 Adelie  Biscoe           37.9          18.6               172        3150 female  2007
## 10 Adelie  Biscoe           40.5          18.9               180        3950 male    2007
## #  with 226 more rows
```
…
---

# Filter

* Choose only the penguins that are species `Gentoo` or not from the island `Torgersen`

--

```r
penguins %>%
  filter(species == "Gentoo" | island != "Torgersen")
```

```
## # A tibble: 292 x 8
##    species island bill_length_mm bill_depth_mm flipper_length_mm body_mass_g sex     year
##    <fct>   <fct>           <dbl>         <dbl>             <int>       <int> <fct>  <int>
##  1 Adelie  Biscoe           37.8          18.3               174        3400 female  2007
##  2 Adelie  Biscoe           37.7          18.7               180        3600 male    2007
##  3 Adelie  Biscoe           35.9          19.2               189        3800 female  2007
##  4 Adelie  Biscoe           38.2          18.1               185        3950 male    2007
##  5 Adelie  Biscoe           38.8          17.2               180        3800 male    2007
##  6 Adelie  Biscoe           35.3          18.9               187        3800 female  2007
##  7 Adelie  Biscoe           40.6          18.6               183        3550 male    2007
##  8 Adelie  Biscoe           40.5          17.9               187        3200 female  2007
##  9 Adelie  Biscoe           37.9          18.6               172        3150 female  2007
## 10 Adelie  Biscoe           40.5          18.9               180        3950 male    2007
## #  with 282 more rows
```

---
# Filter

* Choose penguins that are from the islands of `Torgersen` or `Dream`

--

```r
penguins %>%
  filter(island %in% c("Torgersen", "Dream"))
```

```
## # A tibble: 176 x 8
##    species island    bill_length_mm bill_depth_mm flipper_length_mm body_mass_g sex     year
##    <fct>   <fct>              <dbl>         <dbl>             <int>       <int> <fct>  <int>
##  1 Adelie  Torgersen           39.1          18.7               181        3750 male    2007
##  2 Adelie  Torgersen           39.5          17.4               186        3800 female  2007
##  3 Adelie  Torgersen           40.3          18                 195        3250 female  2007
##  4 Adelie  Torgersen           NA            NA                  NA          NA <NA>    2007
##  5 Adelie  Torgersen           36.7          19.3               193        3450 female  2007
##  6 Adelie  Torgersen           39.3          20.6               190        3650 male    2007
##  7 Adelie  Torgersen           38.9          17.8               181        3625 female  2007
##  8 Adelie  Torgersen           39.2          19.6               195        4675 male    2007
##  9 Adelie  Torgersen           34.1          18.1               193        3475 <NA>    2007
## 10 Adelie  Torgersen           42            20.2               190        4250 <NA>    2007
## #  with 166 more rows
```
---

# Filter

* Choose penguins that have `bill_length_mm` between 36 than 48 mm (inclusive)

--

```r
penguins %>%
  filter(bill_length_mm <= 48 & bill_length_mm>= 36)
```

```
## # A tibble: 226 x 8
##    species island    bill_length_mm bill_depth_mm flipper_length_mm body_mass_g sex     year
##    <fct>   <fct>              <dbl>         <dbl>             <int>       <int> <fct>  <int>
##  1 Adelie  Torgersen           39.1          18.7               181        3750 male    2007
##  2 Adelie  Torgersen           39.5          17.4               186        3800 female  2007
##  3 Adelie  Torgersen           40.3          18                 195        3250 female  2007
##  4 Adelie  Torgersen           36.7          19.3               193        3450 female  2007
##  5 Adelie  Torgersen           39.3          20.6               190        3650 male    2007
##  6 Adelie  Torgersen           38.9          17.8               181        3625 female  2007
##  7 Adelie  Torgersen           39.2          19.6               195        4675 male    2007
##  8 Adelie  Torgersen           42            20.2               190        4250 <NA>    2007
##  9 Adelie  Torgersen           37.8          17.1               186        3300 <NA>    2007
## 10 Adelie  Torgersen           37.8          17.3               180        3700 <NA>    2007
## #  with 216 more rows
```
---

# Arrange 

* Arrange the penguins based on `bill_length_mm` in increasing order

--

```r
penguins %>%
  arrange(bill_length_mm)
```

```
## # A tibble: 344 x 8
##    species island    bill_length_mm bill_depth_mm flipper_length_mm body_mass_g sex     year
##    <fct>   <fct>              <dbl>         <dbl>             <int>       <int> <fct>  <int>
##  1 Adelie  Dream               32.1          15.5               188        3050 female  2009
##  2 Adelie  Dream               33.1          16.1               178        2900 female  2008
##  3 Adelie  Torgersen           33.5          19                 190        3600 female  2008
##  4 Adelie  Dream               34            17.1               185        3400 female  2008
##  5 Adelie  Torgersen           34.1          18.1               193        3475 <NA>    2007
##  6 Adelie  Torgersen           34.4          18.4               184        3325 female  2007
##  7 Adelie  Biscoe              34.5          18.1               187        2900 female  2008
##  8 Adelie  Torgersen           34.6          21.1               198        4400 male    2007
##  9 Adelie  Torgersen           34.6          17.2               189        3200 female  2008
## 10 Adelie  Biscoe              35            17.9               190        3450 female  2008
## #  with 334 more rows
```
---

# Arrange 

* Arrange the penguins based on `bill_length_mm` in decreasing order

--

```r
penguins %>%
  arrange(desc(bill_length_mm))
```

```
## # A tibble: 344 x 8
##    species   island bill_length_mm bill_depth_mm flipper_length_mm body_mass_g sex     year
##    <fct>     <fct>           <dbl>         <dbl>             <int>       <int> <fct>  <int>
##  1 Gentoo    Biscoe           59.6          17                 230        6050 male    2007
##  2 Chinstrap Dream            58            17.8               181        3700 female  2007
##  3 Gentoo    Biscoe           55.9          17                 228        5600 male    2009
##  4 Chinstrap Dream            55.8          19.8               207        4000 male    2009
##  5 Gentoo    Biscoe           55.1          16                 230        5850 male    2009
##  6 Gentoo    Biscoe           54.3          15.7               231        5650 male    2008
##  7 Chinstrap Dream            54.2          20.8               201        4300 male    2008
##  8 Chinstrap Dream            53.5          19.9               205        4500 male    2008
##  9 Gentoo    Biscoe           53.4          15.8               219        5500 male    2009
## 10 Chinstrap Dream            52.8          20                 205        4550 male    2008
## #  with 334 more rows
```
---

# Select

* Select the 3rd through 5th variables

--

```r
penguins %>%
  select(3:5)
```

```
## # A tibble: 344 x 3
##    bill_length_mm bill_depth_mm flipper_length_mm
##             <dbl>         <dbl>             <int>
##  1           39.1          18.7               181
##  2           39.5          17.4               186
##  3           40.3          18                 195
##  4           NA            NA                  NA
##  5           36.7          19.3               193
##  6           39.3          20.6               190
##  7           38.9          17.8               181
##  8           39.2          19.6               195
##  9           34.1          18.1               193
## 10           42            20.2               190
## #  with 334 more rows
```
---

# Select

* Select the variables `sex`, `island`, and `body_mass_g`

--

```r
penguins %>%
  select(sex, island, body_mass_g)
```

```
## # A tibble: 344 x 3
##    sex    island    body_mass_g
##    <fct>  <fct>           <int>
##  1 male   Torgersen        3750
##  2 female Torgersen        3800
##  3 female Torgersen        3250
##  4 <NA>   Torgersen          NA
##  5 female Torgersen        3450
##  6 male   Torgersen        3650
##  7 female Torgersen        3625
##  8 male   Torgersen        4675
##  9 <NA>   Torgersen        3475
## 10 <NA>   Torgersen        4250
## #  with 334 more rows
```
---

# Select

* Select all the variables except for `flipper_length_mm`, and  `year`

--

```r
penguins %>%
  select(-flipper_length_mm, -year)
```

```
## # A tibble: 344 x 6
##    species island    bill_length_mm bill_depth_mm body_mass_g sex   
##    <fct>   <fct>              <dbl>         <dbl>       <int> <fct> 
##  1 Adelie  Torgersen           39.1          18.7        3750 male  
##  2 Adelie  Torgersen           39.5          17.4        3800 female
##  3 Adelie  Torgersen           40.3          18          3250 female
##  4 Adelie  Torgersen           NA            NA            NA <NA>  
##  5 Adelie  Torgersen           36.7          19.3        3450 female
##  6 Adelie  Torgersen           39.3          20.6        3650 male  
##  7 Adelie  Torgersen           38.9          17.8        3625 female
##  8 Adelie  Torgersen           39.2          19.6        4675 male  
##  9 Adelie  Torgersen           34.1          18.1        3475 <NA>  
## 10 Adelie  Torgersen           42            20.2        4250 <NA>  
## #  with 334 more rows
```
…
---

# Select

* Select all the variables ending with `mm` or beginning with `s`

--

```r
penguins %>%
  select(ends_with("mm") | starts_with("s"))
```

```
## # A tibble: 344 x 5
##    bill_length_mm bill_depth_mm flipper_length_mm species sex   
##             <dbl>         <dbl>             <int> <fct>   <fct> 
##  1           39.1          18.7               181 Adelie  male  
##  2           39.5          17.4               186 Adelie  female
##  3           40.3          18                 195 Adelie  female
##  4           NA            NA                  NA Adelie  <NA>  
##  5           36.7          19.3               193 Adelie  female
##  6           39.3          20.6               190 Adelie  male  
##  7           38.9          17.8               181 Adelie  female
##  8           39.2          19.6               195 Adelie  male  
##  9           34.1          18.1               193 Adelie  <NA>  
## 10           42            20.2               190 Adelie  <NA>  
## #  with 334 more rows
```
…
# Mutate

* Create a variable called `bill_area` that approximates bill surface area in mm (assume a rectangular bill) and select the three bill variables.

--

```r
penguins %>%
  mutate(bill_area = bill_length_mm * bill_depth_mm) %>%
  select(starts_with("bill"))
```

```
## # A tibble: 344 x 3
##    bill_length_mm bill_depth_mm bill_area
##             <dbl>         <dbl>     <dbl>
##  1           39.1          18.7      731.
##  2           39.5          17.4      687.
##  3           40.3          18        725.
##  4           NA            NA         NA 
##  5           36.7          19.3      708.
##  6           39.3          20.6      810.
##  7           38.9          17.8      692.
##  8           39.2          19.6      768.
##  9           34.1          18.1      617.
## 10           42            20.2      848.
## #  with 334 more rows
```
…
# Transmute

* Keep only the created variable

* Create a variable called `bill_area` that approximates bill surface area in mm (assume a rectangular bill) and select the three bill variables.

--

```r
penguins %>%
  transmute(bill_area = bill_length_mm * bill_depth_mm) 
```

```
## # A tibble: 344 x 1
##    bill_area
##        <dbl>
##  1      731.
##  2      687.
##  3      725.
##  4       NA 
##  5      708.
##  6      810.
##  7      692.
##  8      768.
##  9      617.
## 10      848.
## #  with 334 more rows
```
…
# Transmute

* Keep only the created variable

* Create a variable called `bill_area` that approximates bill surface area on a log scale (assume a rectangular bill) and select the three bill variables (Why would you do this? No one knows...)

--

```r
penguins %>%
  transmute(bill_area = log(bill_length_mm * bill_depth_mm))
```

```
## # A tibble: 344 x 1
##    bill_area
##        <dbl>
##  1      6.59
##  2      6.53
##  3      6.59
##  4     NA   
##  5      6.56
##  6      6.70
##  7      6.54
##  8      6.64
##  9      6.43
## 10      6.74
## #  with 334 more rows
```
…
* Count using `n()`

* Important to make sure you check the group sample size 

```r
starwars %>%
  filter(!is.na(mass) & !is.na(films)) %>%
  group_by(films) %>%
  summarize(mean_body_mass_by_home = mean(mass),
            count = n())
```

```
## # A tibble: 23 x 3
##    films     mean_body_mass_by_home count
##    <list>                     <dbl> <int>
##  1 <chr [5]>                   79.3     3
##  2 <chr [6]>                   76       2
##  3 <chr [7]>                   32       1
##  4 <chr [4]>                  136       1
##  5 <chr [3]>                   97.5     2
##  6 <chr [1]>                   75       4
##  7 <chr [3]>                   75.9     8
##  8 <chr [4]>                   80       1
##  9 <chr [3]>                 1358       1
## 10 <chr [3]>                   77       1
## #  with 13 more rows
```
…
# Question

* Which character has the highest body mass?

--

```r
starwars %>%
  select(name, mass) %>%
  arrange(desc(mass))
```

```
## # A tibble: 87 x 2
##    name                   mass
##    <chr>                 <dbl>
##  1 Jabba Desilijic Tiure  1358
##  2 Grievous                159
##  3 IG-88                   140
##  4 Darth Vader             136
##  5 Tarfful                 136
##  6 Owen Lars               120
##  7 Bossk                   113
##  8 Chewbacca               112
##  9 Jek Tono Porkins        110
## 10 Dexter Jettster         102
## #  with 77 more rows
```
…
--

```r
starwars %>%
  group_by(species) %>%
  filter(!is.na(height) & !is.na(mass)) %>%
  summarize(
    mean_height = mean(height),
    mean_mass = mean(mass),
    count = n()
  )
```

```
## # A tibble: 32 x 4
##    species   mean_height mean_mass count
##    <chr>           <dbl>     <dbl> <int>
##  1 Aleena            79       15       1
##  2 Besalisk         198      102       1
##  3 Cerean           198       82       1
##  4 Clawdite         168       55       1
##  5 Droid            140       69.8     4
##  6 Dug              112       40       1
##  7 Ewok              88       20       1
##  8 Geonosian        183       80       1
##  9 Gungan           210       74       2
## 10 Human            180.      82.8    22
## #  with 22 more rows
```
…
# Grouping

* Filter the data to only contain penguin species have 100 observations or more?

--

```r
penguins %>%
  group_by(species) %>%
  filter(n() >= 100) 
```

```
## # A tibble: 276 x 8
## # Groups:   species [2]
##    species island    bill_length_mm bill_depth_mm flipper_length_mm body_mass_g sex     year
##    <fct>   <fct>              <dbl>         <dbl>             <int>       <int> <fct>  <int>
##  1 Adelie  Torgersen           39.1          18.7               181        3750 male    2007
##  2 Adelie  Torgersen           39.5          17.4               186        3800 female  2007
##  3 Adelie  Torgersen           40.3          18                 195        3250 female  2007
##  4 Adelie  Torgersen           NA            NA                  NA          NA <NA>    2007
##  5 Adelie  Torgersen           36.7          19.3               193        3450 female  2007
##  6 Adelie  Torgersen           39.3          20.6               190        3650 male    2007
##  7 Adelie  Torgersen           38.9          17.8               181        3625 female  2007
##  8 Adelie  Torgersen           39.2          19.6               195        4675 male    2007
##  9 Adelie  Torgersen           34.1          18.1               193        3475 <NA>    2007
## 10 Adelie  Torgersen           42            20.2               190        4250 <NA>    2007
## #  with 266 more rows
```
…
